{
  "status": true,
  "code": null,
  "data": {
    "page": 1,
    "pageSize": 10,
    "totalItems": 35,
    "totalPages": 4,
    "list": [
      {
        "no": 10,
        "seq": 10,
        "category": "자동충전",
        "category2": "충전",
        "question": "자동충전카드 사용중지(B/L 등록)을 해제하려면?",
        "exposedYn": "Y"
      },
      {
        "no": 9,
        "seq": 9,
        "category": "선불전자카드",
        "category2": "기본정보",
        "question": "선불하이패스카드란?",
        "exposedYn": "N"
      },
      {
        "no": 8,
        "seq": 8,
        "category": "스마트 자동충전 카드",
        "category2": "기본정보",
        "question": "스마트 자동충전카드란? ",
        "exposedYn": "Y"
      },
      {
        "no": 7,
        "seq": 7,
        "category": "앱 이용",
        "category2": "기본정보",
        "question": "로그아웃이 안 보일때는? ",
        "exposedYn": "Y"
      },
      {
        "no": 6,
        "seq": 6,
        "category": "NFC 충전",
        "category2": "오류안내",
        "question": "NFC 충전이 실행되지 않는 경우는? ",
        "exposedYn": "Y"
      },
      {
        "no": 5,
        "seq": 5,
        "category": "자동충전",
        "category2": "충전",
        "question": "자동충전카드를 발급받는 즉시 사용이 가능한지?",
        "exposedYn": "Y"
      },
      {
        "no": 4,
        "seq": 4,
        "category": "자동충전",
        "category2": "충전",
        "question": "자동충전금 인출계좌를 변경할 수 있는지?",
        "exposedYn": "N"
      },
      {
        "no": 3,
        "seq": 3,
        "category": "자동충전",
        "category2": "기본정보",
        "question": "자동충전카드의 신청 장소는? ",
        "exposedYn": "Y"
      },
      {
        "no": 2,
        "seq": 2,
        "category": "자동충전",
        "category2": "기본정보",
        "question": "자동충전카드란? ",
        "exposedYn": "Y"
      },
      {
        "no": 1,
        "seq": 1,
        "category": "NFC 충전",
        "category2": "기본정보",
        "question": "NFC 충전이란?",
        "exposedYn": "Y"
      }
    ]
  },
  "message": ""
}